Convert a CSV into a serial mapping suitable for Contextractr — csv_to_serial • contextractr
…
if (requireNamespace("readr", quietly = TRUE)){
  in_csv <- readr::read_csv("../../tests/testthat/csv_specifier.csv")
  print(in_csv)

  out <- in_csv %>% csv_to_serial()
  if (requireNamespace("utils", quietly = TRUE)) utils::str(out)
}
#> Parsed with column specification:
#> cols(
#>   title = col_character(),
#>   keywords = col_character(),
#>   approx.match = col_logical(),
#>   comments = col_character()
#> )
#> # A tibble: 40 x 4
#>    title      keywords   approx.match comments                                  
#>    <chr>      <chr>      <lgl>        <chr>                                     
#>  1 A2RB       telmisart… NA           NA                                        
#>  2 A2RB       micardis   NA           NA                                        
#>  3 ACE Inhib… perindopr… NA           NA                                        
#>  4 ACE Inhib… coversyl   NA           NA                                        
#>  5 aspirin    aspirin    NA           Match aspirin with aspirin. If approx.mat…
#>  6 aspirin    spren      NA           Comments are ignored, just add your thoug…
#>  7 aspirin    cartia     NA           Aspirin should match aspirin, spren, or c…
#>  8 Beta bloc… SOTALOL    NA           NA                                        
#>  9 Beta bloc… metoprolol NA           NA                                        
#> 10 Frusemide… frusemide  NA           NA                                        
#> # … with 30 more rows
…
